%!PS-Adobe-3.0 EPSF-3.0
%%Creator: cairo 1.14.6 (http://cairographics.org)
%%CreationDate: Sat Nov 16 00:25:00 2019
%%Pages: 1
%%DocumentData: Clean7Bit
%%LanguageLevel: 2
%%BoundingBox: 0 -1 200 179
%%EndComments
%%BeginProlog
save
50 dict begin
/q { gsave } bind def
/Q { grestore } bind def
/cm { 6 array astore concat } bind def
/w { setlinewidth } bind def
/J { setlinecap } bind def
/j { setlinejoin } bind def
/M { setmiterlimit } bind def
/d { setdash } bind def
/m { moveto } bind def
/l { lineto } bind def
/c { curveto } bind def
/h { closepath } bind def
/re { exch dup neg 3 1 roll 5 3 roll moveto 0 rlineto
      0 exch rlineto 0 rlineto closepath } bind def
/S { stroke } bind def
/f { fill } bind def
/f* { eofill } bind def
/n { newpath } bind def
/W { clip } bind def
/W* { eoclip } bind def
/BT { } bind def
/ET { } bind def
/pdfmark where { pop globaldict /?pdfmark /exec load put }
    { globaldict begin /?pdfmark /pop load def /pdfmark
    /cleartomark load def end } ifelse
/BDC { mark 3 1 roll /BDC pdfmark } bind def
/EMC { mark /EMC pdfmark } bind def
/cairo_store_point { /cairo_point_y exch def /cairo_point_x exch def } def
/Tj { show currentpoint cairo_store_point } bind def
/TJ {
  {
    dup
    type /stringtype eq
    { show } { -0.001 mul 0 cairo_font_matrix dtransform rmoveto } ifelse
  } forall
  currentpoint cairo_store_point
} bind def
/cairo_selectfont { cairo_font_matrix aload pop pop pop 0 0 6 array astore
    cairo_font exch selectfont cairo_point_x cairo_point_y moveto } bind def
/Tf { pop /cairo_font exch def /cairo_font_matrix where
      { pop cairo_selectfont } if } bind def
/Td { matrix translate cairo_font_matrix matrix concatmatrix dup
      /cairo_font_matrix exch def dup 4 get exch 5 get cairo_store_point
      /cairo_font where { pop cairo_selectfont } if } bind def
/Tm { 2 copy 8 2 roll 6 array astore /cairo_font_matrix exch def
      cairo_store_point /cairo_font where { pop cairo_selectfont } if } bind def
/g { setgray } bind def
/rg { setrgbcolor } bind def
/d1 { setcachedevice } bind def
%%EndProlog
%%BeginSetup
%%EndSetup
%%Page: 1 1
%%BeginPageSetup
%%PageBoundingBox: 0 -1 200 179
%%EndPageSetup
q 0 -1 200 180 rectclip q
Q q
0 178.103 200 -179 re W n
-0.27 180.794 m 210.824 180.794 l 211.836 180.794 212.648 179.649 212.648
 178.228 c 212.648 2.567 l 212.648 1.146 211.836 0.001 210.824 0.001 c -0.27
 0.001 l -1.281 0.001 -2.098 1.146 -2.098 2.567 c -2.098 178.228 l -2.098
 179.649 -1.281 180.794 -0.27 180.794 c h
-0.27 180.794 m W n
q
0 178.103 200 -179 re W n
[ 1 0 0 1 0 -0.89743 ] concat
  q
0.0823529 0.596078 0.505882 rg
184.68 117.043 m 181.496 126.734 176.824 135.512 170.988 143.191 c 170.895
 143.258 l 168.289 147.078 163.422 148.867 158.855 147.34 c 157.125 146.77
 155.645 145.773 154.473 144.531 c 154.414 144.477 l 147.879 137.625 l 145.441
 140.035 142.789 142.293 139.941 144.363 c 136.949 146.531 133.836 148.406
 130.637 150 c 135.141 158.664 l 135.168 158.738 l 135.98 160.238 136.445
 161.977 136.445 163.809 c 136.445 168.664 133.219 172.758 128.816 174.039
 c 128.719 174.121 l 119.66 177.281 109.926 179 99.793 179 c 89.309 179 
79.242 177.152 69.902 173.777 c 69.797 173.738 l 65.586 172.332 62.559 168.324
 62.559 163.617 c 62.559 161.977 62.93 160.414 63.586 159.02 c 63.656 158.867
 l 68.82 148.953 l 66.266 147.559 63.773 145.984 61.359 144.211 c 58.305
 141.973 55.488 139.516 52.934 136.887 c 45.672 144.477 l 45.617 144.531
 l 44.457 145.773 42.984 146.77 41.246 147.34 c 36.68 148.867 31.805 147.078
 29.211 143.258 c 29.105 143.191 l 23.277 135.512 18.613 126.734 15.41 117.043
 c 12.113 106.992 10.676 96.789 10.91 86.773 c 10.922 86.668 l 10.91 82.195
 13.727 78.027 18.16 76.547 c 19.715 76.031 21.301 75.887 22.809 76.09 c
 22.969 76.105 l 35.059 78.113 l 35.57 75.109 36.289 72.09 37.238 69.094
 c 38.312 65.664 39.652 62.387 41.207 59.262 c 31.121 54.293 l 31.062 54.25
 l 29.52 53.527 28.129 52.41 27.051 50.922 c 24.203 47.008 24.398 41.777
 27.195 38.125 c 27.238 37.996 l 32.684 30.035 39.531 22.852 47.688 16.809
 c 56.152 10.555 65.344 6.035 74.852 3.18 c 74.957 3.145 l 79.18 1.773 83.973
 3.18 86.742 6.984 c 87.703 8.32 88.32 9.789 88.605 11.312 c 88.637 11.477
 l 90.43 23.473 l 93.75 22.938 97.152 22.637 100.633 22.625 c 103.703 22.617
 106.738 22.816 109.707 23.219 c 111.465 11.477 l 111.5 11.312 l 111.785
 9.789 112.402 8.32 113.359 6.984 c 116.129 3.18 120.922 1.773 125.137 3.145
 c 125.246 3.18 l 134.758 6.035 143.949 10.555 152.418 16.809 c 160.574 
22.852 167.418 30.035 172.859 37.996 c 172.906 38.125 l 175.699 41.777 175.898
 47.008 173.051 50.922 c 171.98 52.41 170.586 53.527 169.043 54.25 c 168.973
 54.293 l 159.883 58.77 l 161.578 62.066 163.004 65.547 164.172 69.199 c
 165.082 72.082 165.793 74.996 166.301 77.895 c 177.133 76.105 l 177.285
 76.09 l 178.801 75.887 180.391 76.031 181.941 76.547 c 186.383 78.027 189.195
 82.195 189.18 86.668 c 189.195 86.773 l 189.43 96.789 187.988 106.992 184.68
 117.043 c h
146.906 121.551 m 146.93 121.516 l 147.867 120.34 147.945 118.637 147.043
 117.355 c 146.746 116.945 146.391 116.621 145.977 116.387 c 141.402 113.824
 l 140.73 114.938 140.016 116.031 139.262 117.074 c 139.223 117.152 l 138.949
 117.527 138.727 117.949 138.578 118.414 c 137.977 120.223 138.559 122.133
 139.895 123.309 c 143.152 126.453 l 144.492 124.887 145.75 123.254 146.906
 121.551 c h
137.438 101.32 m 138.027 99.531 138.48 97.723 138.805 95.93 c 132.992 94.898
 l 131.691 94.785 130.52 93.891 130.105 92.562 c 129.965 92.117 129.949 
91.684 129.984 91.25 c 129.984 91.105 l 130.164 87.691 129.734 84.176 128.645
 80.703 c 127.492 77.086 125.711 73.844 123.453 71.066 c 123.32 70.914 l
 123.312 70.91 l 123.031 70.586 122.668 69.75 122.668 69.75 c 122.25 68.402
 122.688 67.004 123.68 66.152 c 128.02 61.707 l 126.512 60.129 124.863 58.652
 123.047 57.32 c 121.73 56.348 120.383 55.484 119.008 54.703 c 116.008 60.523
 l 115.5 61.746 114.316 62.605 112.93 62.609 c 112.93 62.609 112.039 62.516
 111.637 62.352 c 111.621 62.352 l 111.441 62.266 l 108.125 60.961 104.516
 60.254 100.75 60.266 c 97.137 60.281 93.699 60.965 90.512 62.184 c 90.387
 62.234 l 89.988 62.406 89.582 62.523 89.121 62.535 c 87.723 62.539 86.531
 61.691 86.016 60.477 c 82.574 53.918 l 80.672 54.887 78.824 56.008 77.059
 57.32 c 75.527 58.449 74.113 59.672 72.797 60.977 c 77.719 65.992 l 78.715
 66.852 79.152 68.262 78.73 69.582 c 78.73 69.582 78.371 70.418 78.094 70.754
 c 78.094 70.762 78.086 70.762 78.086 70.762 c 77.945 70.91 l 75.695 73.688
 73.922 76.934 72.781 80.559 c 71.684 84.027 71.262 87.539 71.434 90.969
 c 71.438 91.105 l 71.492 91.535 71.473 91.977 71.328 92.422 c 70.914 93.746
 69.742 94.641 68.445 94.758 c 61.324 96.035 l 61.645 97.797 62.086 99.562
 62.652 101.32 c 63.363 103.457 64.238 105.492 65.266 107.426 c 71.176 104.473
 l 72.301 103.797 73.758 103.812 74.883 104.637 c 74.883 104.637 75.559 
105.242 75.777 105.617 c 75.785 105.629 l 75.883 105.801 l 77.793 108.832
 80.281 111.559 83.34 113.793 c 86.246 115.926 89.426 117.441 92.699 118.34
 c 92.84 118.379 l 93.258 118.484 93.664 118.637 94.035 118.902 c 95.156
 119.73 95.625 121.129 95.34 122.406 c 94.461 128.438 l 96.234 128.684 98.039
 128.816 99.875 128.816 c 102.273 128.816 104.625 128.594 106.906 128.18
 c 106.094 122.348 l 105.809 121.066 106.285 119.676 107.41 118.848 c 107.789
 118.586 108.195 118.438 108.617 118.34 c 108.758 118.312 l 112.039 117.422
 115.219 115.926 118.145 113.805 c 121.211 111.594 123.727 108.887 125.645
 105.867 c 125.75 105.691 l 125.75 105.684 l 125.984 105.309 126.652 104.695
 126.652 104.695 c 127.785 103.887 129.246 103.883 130.363 104.566 c 135.078
 106.965 l 135.996 105.164 136.793 103.285 137.438 101.32 c h
155.996 83.75 m 152.391 84.191 l 150.66 84.367 149.098 85.543 148.52 87.316
 c 148.367 87.789 148.293 88.262 148.289 88.73 c 148.309 88.805 l 148.32
 90.555 148.219 92.309 148.027 94.059 c 152.387 94.656 l 152.879 94.719 
153.398 94.684 153.898 94.527 c 155.375 94.051 156.297 92.664 156.281 91.199
 c 156.281 91.137 l 156.344 88.695 156.258 86.227 155.996 83.75 c h
133.531 135.309 m 135.961 133.547 138.18 131.648 140.23 129.617 c 131.078
 120.055 l 129.766 118.898 129.203 117.02 129.781 115.242 c 129.977 114.652
 130.293 114.176 130.68 113.742 c 130.797 113.598 l 131.789 112.355 132.719
 111.035 133.566 109.66 c 132.691 109.504 131.766 109.684 130.992 110.25
 c 130.695 110.457 130.438 110.719 130.234 110.996 c 130.215 111.055 l 128.016
 114.117 125.289 116.891 122.078 119.219 c 119.035 121.418 115.754 123.074
 112.367 124.188 c 112.301 124.203 l 111.969 124.316 111.656 124.477 111.355
 124.695 c 110.434 125.359 109.949 126.406 109.945 127.477 c 111.16 127.145
 112.359 126.766 113.52 126.324 c 113.688 126.258 l 114.227 126.023 114.773
 125.871 115.391 125.871 c 117.25 125.871 118.832 127.012 119.508 128.629
 c 125.508 140.145 l 128.266 138.789 130.945 137.176 133.531 135.309 c h
111.465 136.277 m 112.301 140.887 l 112.391 141.379 112.586 141.863 112.887
 142.297 c 113.789 143.562 115.367 144.031 116.758 143.559 c 116.812 143.535
 l 118.422 143.066 120.012 142.504 121.594 141.883 c 119.801 138.086 l 119.113
 136.445 117.5 135.281 115.621 135.281 c 115.125 135.281 114.652 135.363
 114.223 135.504 c 114.133 135.523 l 113.254 135.805 112.367 136.051 111.465
 136.277 c h
71.699 153.422 m 71.438 153.992 71.305 154.625 71.305 155.301 c 71.305 
157.402 72.711 159.176 74.617 159.719 c 74.676 159.738 l 82.562 162.652 
90.895 164.164 99.77 164.164 c 108.344 164.164 116.566 162.691 124.223 159.977
 c 124.297 159.961 l 126.16 159.387 127.527 157.633 127.527 155.566 c 127.527
 154.852 127.359 154.172 127.07 153.566 c 126.32 151.969 l 124.305 152.793
 122.266 153.516 120.199 154.145 c 120.109 154.133 l 116.863 155.301 113.125
 154.223 111.027 151.254 c 110.227 150.137 109.758 148.883 109.598 147.605
 c 109.59 147.551 l 108.125 137 l 105.414 137.488 102.633 137.742 99.77 
137.742 c 97.539 137.742 95.34 137.59 93.176 137.285 c 91.688 147.582 l 
91.68 147.641 l 91.508 148.914 91.031 150.168 90.227 151.289 c 88.109 154.23
 84.363 155.289 81.125 154.109 c 81.035 154.109 l 78.262 153.258 75.523 
152.215 72.844 150.973 c h
89.805 136.688 m 88.059 136.309 86.348 135.84 84.676 135.281 c 84.609 135.23
 l 84.168 135.09 83.703 135.012 83.215 135.012 c 81.359 135.012 79.77 136.125
 79.055 137.734 c 77.566 140.902 l 79.832 141.941 82.141 142.82 84.484 143.535
 c 84.543 143.555 l 85.922 144.031 87.523 143.57 88.422 142.316 c 88.734
 141.883 88.93 141.402 89.023 140.902 c h
67.816 135.195 m 69.809 136.652 71.852 137.945 73.941 139.098 c 79.523 
128.371 l 80.207 126.746 81.789 125.621 83.648 125.621 c 83.648 125.621 
84.836 125.746 85.371 125.973 c 85.375 125.973 l 85.617 126.094 l 87.492
 126.836 89.445 127.422 91.438 127.875 c 91.57 126.691 91.086 125.469 90.059
 124.719 c 89.762 124.496 89.445 124.336 89.121 124.227 c 89.055 124.199
 l 85.672 123.062 82.41 121.398 79.367 119.172 c 76.164 116.828 73.469 114.047
 71.289 110.961 c 71.27 110.902 l 71.059 110.621 70.816 110.367 70.516 110.148
 c 69.391 109.328 67.93 109.289 66.809 109.945 c 66.746 109.973 l 67.535
 111.238 68.395 112.449 69.309 113.598 c 69.422 113.742 l 69.809 114.176
 70.125 114.652 70.32 115.242 c 70.906 117.02 70.336 118.898 69.023 120.055
 c 60.586 128.879 l 62.766 131.148 65.168 133.258 67.816 135.195 c h
54.508 121.312 m 54.535 121.355 l 55.52 122.855 56.605 124.297 57.75 125.688
 c 60.215 123.309 l 61.547 122.133 62.129 120.223 61.527 118.414 c 61.379
 117.949 61.16 117.527 60.887 117.152 c 60.844 117.074 l 60.191 116.168 
59.57 115.23 58.973 114.27 c 55.488 116.195 l 55.082 116.434 54.719 116.754
 54.414 117.156 c 53.504 118.438 53.578 120.133 54.508 121.312 c h
30.637 82.09 m 30.02 82.027 29.375 82.09 28.738 82.305 c 26.766 82.977 
25.535 84.867 25.633 86.867 c 25.633 86.93 l 25.371 95.391 26.566 103.852
 29.359 112.355 c 32.059 120.555 36.043 127.961 41.004 134.434 c 41.047 
134.5 l 42.176 136.105 44.25 136.852 46.191 136.211 c 46.863 135.984 47.461
 135.613 47.93 135.145 c 49.766 133.391 l 48.23 131.57 46.816 129.688 45.5
 127.75 c 45.453 127.68 l 43.508 124.949 43.414 121.18 45.473 118.32 c 46.191
 117.316 47.102 116.535 48.117 115.988 c 48.219 115.926 l 57.336 111.391
 l 56.121 109.059 55.066 106.613 54.219 104.031 c 53.523 101.895 52.984 
99.746 52.59 97.59 c 43.613 99.195 l 43.551 99.203 l 42.301 99.441 40.969
 99.387 39.66 98.961 c 36.227 97.859 34.051 94.609 34.145 91.137 c 34.109
 91.047 l 34.051 88.242 34.152 85.402 34.449 82.559 c h
51.816 88.73 m 51.805 88.262 51.734 87.789 51.586 87.316 c 50.988 85.543
 49.441 84.367 47.707 84.191 c 45.41 83.906 l 45.168 86.285 45.086 88.672
 45.156 91.023 c 45.156 91.094 l 45.129 92.562 46.074 93.938 47.535 94.418
 c 48.039 94.574 48.559 94.609 49.051 94.547 c 52.082 94.133 l 51.887 92.348
 51.785 90.574 51.797 88.805 c h
47.75 72.453 m 46.969 74.938 46.363 77.426 45.945 79.914 c 56.664 81.691
 l 58.41 81.836 59.977 82.992 60.559 84.77 c 60.559 84.77 60.82 85.953 60.77
 86.531 c 60.77 86.547 l 60.738 86.816 l 60.629 88.84 60.684 90.879 60.887
 92.934 c 61.668 92.82 l 63.004 92.699 64.188 91.797 64.613 90.43 c 64.727
 90.086 64.773 89.727 64.773 89.379 c 64.781 89.316 l 64.793 85.723 65.324
 82.07 66.469 78.457 c 67.66 74.656 69.43 71.199 71.648 68.133 c 71.699 
68.102 l 71.898 67.82 72.059 67.488 72.172 67.148 c 72.59 65.809 72.164 
64.406 71.195 63.531 c 70.781 63.133 l 69.59 64.516 68.492 65.961 67.523
 67.473 c 67.418 67.617 l 67.125 68.121 66.773 68.578 66.273 68.949 c 64.781
 70.051 62.84 70.086 61.344 69.188 c 51.117 64.141 l 49.797 66.773 48.668
 69.531 47.75 72.453 c h
64.305 57.062 m 61.746 54.66 l 61.398 54.352 60.984 54.09 60.504 53.945
 c 59.012 53.465 57.438 54.07 56.625 55.324 c 56.594 55.367 l 55.352 56.984
 54.215 58.68 53.156 60.43 c 55.559 61.73 l 57.078 62.645 59.062 62.613 
60.578 61.496 c 60.973 61.207 61.305 60.863 61.574 60.484 c 61.633 60.414
 l 62.461 59.262 63.359 58.156 64.305 57.062 c h
85.348 20.668 m 85.219 20.051 84.961 19.457 84.57 18.914 c 83.34 17.223
 81.164 16.621 79.297 17.332 c 79.238 17.348 l 71.176 19.707 63.562 23.453
 56.414 28.758 c 49.496 33.859 43.727 39.969 39.156 46.715 c 39.105 46.785
 l 37.934 48.359 37.863 50.578 39.082 52.246 c 39.496 52.824 40.02 53.266
 40.617 53.582 c 43.453 55.141 l 44.762 52.902 46.188 50.77 47.727 48.742
 c 47.777 48.668 l 49.734 45.957 53.258 44.676 56.602 45.746 c 57.77 46.121
 58.789 46.742 59.629 47.539 c 59.703 47.617 l 66.586 54.629 l 68.215 52.996
 69.984 51.469 71.898 50.047 c 73.988 48.496 76.164 47.164 78.398 46.008
 c 74.188 38.008 l 74.168 37.957 l 73.547 36.828 73.199 35.531 73.195 34.156
 c 73.18 30.508 75.574 27.422 78.887 26.449 c 78.957 26.391 l 81.27 25.574
 83.637 24.887 86.047 24.324 c h
88.609 37.699 m 88.145 35.27 l 86.188 35.734 84.254 36.309 82.379 36.984
 c 82.316 36.996 l 80.914 37.438 79.906 38.746 79.914 40.305 c 79.914 40.836
 80.043 41.352 80.258 41.805 c 81.551 44.523 l 82.859 43.969 84.18 43.473
 85.523 43.035 c 85.602 43.031 l 86.047 42.879 86.461 42.66 86.855 42.375
 c 88.355 41.273 88.988 39.422 88.609 37.699 c h
100.695 33.754 m 97.758 33.77 94.887 34.027 92.078 34.48 c 93.734 45.523
 l 94.133 47.238 93.516 49.098 92.023 50.211 c 92.023 50.211 90.992 50.816
 90.43 50.957 c 90.418 50.957 l 90.148 51.02 l 88.543 51.441 86.961 51.977
 85.398 52.621 c 85.762 53.379 l 86.293 54.617 87.504 55.473 88.918 55.473
 c 89.281 55.473 89.633 55.406 89.961 55.305 c 90.027 55.289 l 93.418 54.184
 97.031 53.582 100.785 53.562 c 104.746 53.547 108.555 54.176 112.117 55.367
 c 112.168 55.395 l 112.504 55.5 112.855 55.555 113.215 55.555 c 114.609
 55.551 115.797 54.707 116.332 53.504 c 116.395 53.355 l 114.297 52.383 
112.148 51.594 109.953 51.02 c 109.691 50.957 l 109.68 50.957 l 109.113 
50.816 108.078 50.211 108.078 50.211 c 106.586 49.098 105.973 47.238 106.367
 45.523 c 108.07 34.191 l 105.664 33.895 103.207 33.734 100.695 33.754 c
 h
121.793 41.715 m 121.973 41.281 122.078 40.805 122.078 40.305 c 122.074
 38.727 121.02 37.391 119.574 37.004 c 119.539 36.984 l 117.094 36.102 114.598
 35.395 112.039 34.863 c 111.484 37.699 l 111.117 39.422 111.75 41.273 113.254
 42.375 c 113.641 42.66 114.059 42.879 114.504 43.031 c 114.578 43.035 l
 116.469 43.641 118.332 44.379 120.156 45.246 c h
159.492 53.582 m 160.082 53.266 160.605 52.824 161.016 52.246 c 162.234
 50.578 162.168 48.359 161 46.785 c 160.945 46.715 l 156.371 39.969 150.609
 33.859 143.691 28.758 c 136.535 23.453 128.922 19.707 120.863 17.348 c 
120.809 17.332 l 118.945 16.621 116.766 17.223 115.539 18.914 c 115.145 
19.457 114.887 20.051 114.75 20.668 c 114.125 23.961 l 117.188 24.586 120.172
 25.41 123.066 26.441 c 123.145 26.48 l 126.305 27.508 128.594 30.492 128.609
 34.031 c 128.613 35.27 128.348 36.438 127.855 37.492 c 127.805 37.602 l
 123.094 46.75 l 124.844 47.73 126.555 48.82 128.203 50.047 c 130.387 51.676
 132.398 53.453 134.23 55.355 c 141.66 47.75 l 141.742 47.664 l 142.578 
46.879 143.605 46.242 144.77 45.871 c 148.105 44.801 151.637 46.066 153.582
 48.781 c 153.648 48.852 l 155.043 50.699 156.352 52.625 157.57 54.629 c
 h
136.43 57.809 m 137.141 58.652 137.828 59.52 138.477 60.414 c 138.535 60.484
 l 138.805 60.863 139.133 61.207 139.523 61.496 c 141.043 62.613 143.027
 62.645 144.547 61.73 c 147.848 59.938 l 146.898 58.398 145.891 56.914 144.789
 55.492 c 144.758 55.461 l 143.941 54.203 142.363 53.594 140.871 54.07 c
 140.391 54.234 139.98 54.484 139.633 54.785 c h
153.656 72.566 m 152.664 69.43 151.43 66.457 149.98 63.652 c 138.762 69.188
 l 137.27 70.086 135.324 70.051 133.824 68.949 c 133.332 68.578 132.977 
68.121 132.68 67.617 c 132.582 67.473 l 131.789 66.242 130.918 65.055 129.977
 63.914 c 129.172 64.793 128.832 66.062 129.227 67.285 c 129.336 67.641 
129.5 67.965 129.707 68.246 c 129.746 68.281 l 131.977 71.336 133.746 74.797
 134.949 78.598 c 136.09 82.199 136.648 85.852 136.652 89.449 c 136.652 
89.523 l 136.652 89.867 136.711 90.223 136.824 90.574 c 137.188 91.738 138.125
 92.57 139.227 92.859 c 139.422 90.824 139.473 88.809 139.355 86.816 c 139.332
 86.547 l 139.332 86.531 l 139.285 85.953 139.543 84.77 139.543 84.77 c 
140.129 82.992 141.691 81.836 143.438 81.691 c 155.422 79.707 l 154.992 
77.324 154.41 74.938 153.656 72.566 c h
174.477 86.93 m 174.469 86.867 l 174.566 84.867 173.332 82.977 171.359 
82.305 c 170.727 82.09 170.09 82.027 169.469 82.09 c 166.945 82.395 l 167.273
 85.324 167.383 88.242 167.328 91.137 c 167.289 91.23 l 167.383 94.699 165.227
 97.953 161.777 99.07 c 160.48 99.488 159.148 99.555 157.891 99.312 c 157.836
 99.305 l 147.531 97.48 l 147.137 99.672 146.598 101.859 145.887 104.031
 c 145.086 106.457 144.117 108.773 142.988 110.965 c 153.242 116.156 l 153.355
 116.219 l 154.359 116.773 155.258 117.559 155.98 118.57 c 158.016 121.441
 157.902 125.223 155.945 127.93 c 155.945 127.93 155.945 127.934 155.895
 127.996 c 154.441 130.133 152.844 132.184 151.133 134.148 c 152.172 135.145
 l 152.645 135.613 153.227 135.984 153.898 136.211 c 155.848 136.852 157.926
 136.105 159.059 134.5 c 159.102 134.434 l 164.066 127.961 168.039 120.555
 170.734 112.355 c 173.527 103.852 174.73 95.391 174.477 86.93 c f*
  Q
Q
Q Q
showpage
%%Trailer
end restore
%%EOF
